<?xml version="1.0" encoding="UTF-8" standalone="no"?>
<svg
   xmlns:dc="http://purl.org/dc/elements/1.1/"
   xmlns:cc="http://creativecommons.org/ns#"
   xmlns:rdf="http://www.w3.org/1999/02/22-rdf-syntax-ns#"
   xmlns:svg="http://www.w3.org/2000/svg"
   xmlns="http://www.w3.org/2000/svg"
   xmlns:sodipodi="http://sodipodi.sourceforge.net/DTD/sodipodi-0.dtd"
   xmlns:inkscape="http://www.inkscape.org/namespaces/inkscape"
   enable-background="new 0 0 30 30"
   height="30px"
   id="Instagram"
   version="1.1"
   viewBox="0 0 30 30"
   width="30px"
   xml:space="preserve"
   inkscape:version="0.91 r13725"
   sodipodi:docname="instagram_white.svg"><metadata
     id="metadata10"><rdf:RDF><cc:Work
         rdf:about=""><dc:format>image/svg+xml</dc:format><dc:type
           rdf:resource="http://purl.org/dc/dcmitype/StillImage" /><dc:title></dc:title></cc:Work></rdf:RDF></metadata><defs
     id="defs8" /><sodipodi:namedview
     pagecolor="#ffffff"
     bordercolor="#666666"
     borderopacity="1"
     objecttolerance="10"
     gridtolerance="10"
     guidetolerance="10"
     inkscape:pageopacity="0"
     inkscape:pageshadow="2"
     inkscape:window-width="640"
     inkscape:window-height="480"
     id="namedview6"
     showgrid="false"
     inkscape:zoom="7.8666667"
     inkscape:cx="15"
     inkscape:cy="15"
     inkscape:window-x="384"
     inkscape:window-y="119"
     inkscape:window-maximized="0"
     inkscape:current-layer="Instagram" /><g
     id="g3"
     style="fill:#ffffff"><path
       d="M26,0C26,0,3.529,0,3.5,0C1.582,0,0.027,1.586,0.004,3.5L0,3.458c0,0,0,23.028,0,23.042    C0,28.434,1.567,30,3.5,30c0.014,0,23,0,23,0c1.873-0.067,3.5-1.609,3.5-3.5c0-0.014,0-23,0-23C29.978,1.629,27.859,0.067,26,0z     M15,9.5c3.038,0,5.5,2.463,5.5,5.5c0,3.036-2.462,5.5-5.5,5.5c-3.037,0-5.5-2.464-5.5-5.5C9.5,11.963,11.963,9.5,15,9.5z M26,24    c0,1.104-0.896,2-2,2H6c-1.104,0-2-0.896-2-2V12.5h2.359C6.13,13.294,6,14.132,6,15c0,4.97,4.031,9,9,9c4.972,0,9-4.03,9-9    c0-0.868-0.13-1.706-0.359-2.5H26l-0.004,11.461C25.996,23.975,26,23.986,26,24z M26,5.008v3.016h-0.005    c-0.013,0.535-0.442,0.965-0.979,0.974V9H22c-0.545,0-0.982-0.436-0.995-0.977H21V5.008h0.002C21.002,5.005,21,5.003,21,5    c0-0.552,0.447-1,1-1h3.016v0.003C25.561,4.012,26,4.453,26,5c0,0.003-0.002,0.005-0.002,0.008H26z"
       id="Camera"
       style="fill:#ffffff" /></g></svg>